\contentsline {section}{\numberline {1}Latency}{3}{section.1}%
\contentsline {subsection}{\numberline {1.1}cmpxchg128-fail"}{3}{subsection.1.1}%
\contentsline {subsection}{\numberline {1.2}cmpxchg128-succ"}{4}{subsection.1.2}%
\contentsline {subsection}{\numberline {1.3}cmpxchg32-succ"}{5}{subsection.1.3}%
\contentsline {subsection}{\numberline {1.4}cmpxchg64-fail"}{6}{subsection.1.4}%
\contentsline {subsection}{\numberline {1.5}cmpxchg64-succ"}{7}{subsection.1.5}%
\contentsline {subsection}{\numberline {1.6}primitive-swap"}{8}{subsection.1.6}%
\contentsline {subsection}{\numberline {1.7}read"}{9}{subsection.1.7}%
\contentsline {subsection}{\numberline {1.8}xadd64"}{10}{subsection.1.8}%
\contentsline {subsection}{\numberline {1.9}xchg64"}{11}{subsection.1.9}%
\contentsline {section}{\numberline {2}Bandwidth}{12}{section.2}%
\contentsline {subsection}{\numberline {2.1}SSE2-Flush.contended-cmpxchg64"}{12}{subsection.2.1}%
\contentsline {subsection}{\numberline {2.2}SSE2-No-Flush.contended-cmpxchg64"}{13}{subsection.2.2}%
\contentsline {subsection}{\numberline {2.3}SSE2-Flush.contended-writer"}{14}{subsection.2.3}%
\contentsline {subsection}{\numberline {2.4}SSE2-No-Flush.contended-writer"}{15}{subsection.2.4}%
\contentsline {subsection}{\numberline {2.5}SSE2-Flush.contended-xadder"}{16}{subsection.2.5}%
\contentsline {subsection}{\numberline {2.6}SSE2-No-Flush.contended-xadder"}{17}{subsection.2.6}%
\contentsline {subsection}{\numberline {2.7}SSE2-Flush.contended-xchger"}{18}{subsection.2.7}%
\contentsline {subsection}{\numberline {2.8}SSE2-No-Flush.contended-xchger"}{19}{subsection.2.8}%
\contentsline {subsection}{\numberline {2.9}SSE2-Flush.multiple-r1w1"}{20}{subsection.2.9}%
\contentsline {subsection}{\numberline {2.10}SSE2-No-Flush.multiple-r1w1"}{21}{subsection.2.10}%
\contentsline {subsection}{\numberline {2.11}SSE2-Flush.multiple-reader"}{22}{subsection.2.11}%
\contentsline {subsection}{\numberline {2.12}SSE2-No-Flush.multiple-reader"}{23}{subsection.2.12}%
\contentsline {subsection}{\numberline {2.13}SSE2-Flush.multiple-writer"}{24}{subsection.2.13}%
\contentsline {subsection}{\numberline {2.14}SSE2-No-Flush.multiple-writer"}{25}{subsection.2.14}%
\contentsline {subsection}{\numberline {2.15}SSE2-Flush.multiple-xadder"}{26}{subsection.2.15}%
\contentsline {subsection}{\numberline {2.16}SSE2-No-Flush.multiple-xadder"}{27}{subsection.2.16}%
\contentsline {subsection}{\numberline {2.17}SSE2-Flush.not-contended-sameline-writer"}{28}{subsection.2.17}%
\contentsline {subsection}{\numberline {2.18}SSE2-No-Flush.not-contended-sameline-writer"}{29}{subsection.2.18}%
\contentsline {subsection}{\numberline {2.19}SSE2-Flush.not-contended-sameline-xadder"}{30}{subsection.2.19}%
\contentsline {subsection}{\numberline {2.20}SSE2-No-Flush.not-contended-sameline-xadder"}{31}{subsection.2.20}%
\contentsline {subsection}{\numberline {2.21}SSE2-Flush.single-cas-128-fail"}{32}{subsection.2.21}%
\contentsline {subsection}{\numberline {2.22}SSE2-No-Flush.single-cas-128-fail"}{33}{subsection.2.22}%
\contentsline {subsection}{\numberline {2.23}SSE2-Flush.single-cas-128-succ"}{34}{subsection.2.23}%
\contentsline {subsection}{\numberline {2.24}SSE2-No-Flush.single-cas-128-succ"}{35}{subsection.2.24}%
\contentsline {subsection}{\numberline {2.25}SSE2-Flush.single-cas-32-fail"}{36}{subsection.2.25}%
\contentsline {subsection}{\numberline {2.26}SSE2-No-Flush.single-cas-32-fail"}{37}{subsection.2.26}%
\contentsline {subsection}{\numberline {2.27}SSE2-Flush.single-cas-32-succ"}{38}{subsection.2.27}%
\contentsline {subsection}{\numberline {2.28}SSE2-No-Flush.single-cas-32-succ"}{39}{subsection.2.28}%
\contentsline {subsection}{\numberline {2.29}SSE2-Flush.single-cas-fail"}{40}{subsection.2.29}%
\contentsline {subsection}{\numberline {2.30}SSE2-No-Flush.single-cas-fail"}{41}{subsection.2.30}%
\contentsline {subsection}{\numberline {2.31}SSE2-Flush.single-cas-succ"}{42}{subsection.2.31}%
\contentsline {subsection}{\numberline {2.32}SSE2-No-Flush.single-cas-succ"}{43}{subsection.2.32}%
\contentsline {subsection}{\numberline {2.33}SSE2-Flush.single-r1w1"}{44}{subsection.2.33}%
\contentsline {subsection}{\numberline {2.34}SSE2-No-Flush.single-r1w1"}{45}{subsection.2.34}%
\contentsline {subsection}{\numberline {2.35}SSE2-Flush.single-reader"}{46}{subsection.2.35}%
\contentsline {subsection}{\numberline {2.36}SSE2-No-Flush.single-reader"}{47}{subsection.2.36}%
\contentsline {subsection}{\numberline {2.37}SSE2-Flush.single-writer"}{48}{subsection.2.37}%
\contentsline {subsection}{\numberline {2.38}SSE2-No-Flush.single-writer"}{49}{subsection.2.38}%
\contentsline {subsection}{\numberline {2.39}SSE2-Flush.single-xadder"}{50}{subsection.2.39}%
\contentsline {subsection}{\numberline {2.40}SSE2-No-Flush.single-xadder"}{51}{subsection.2.40}%
\contentsline {subsection}{\numberline {2.41}SSE2-Flush.single-xchanger"}{52}{subsection.2.41}%
\contentsline {subsection}{\numberline {2.42}SSE2-No-Flush.single-xchanger"}{53}{subsection.2.42}%
